<<<<<<< HEAD
<<<<<<< HEAD
Reza R
=======
irfan edit satu
Anas tambah edit 2
>>>>>>> ccf2d9d05372a1860beab768d0384d260ef07ec2
=======
irfan edit satu
Anas tambah edit 2
irfan edit dua
>>>>>>> 70dee640cfdd6c19b338a6e24e400f32743c9f23
